<?xml version="1.0" encoding="UTF-8" standalone="no"?>
<svg
   xmlns:dc="http://purl.org/dc/elements/1.1/"
   xmlns:cc="http://creativecommons.org/ns#"
   xmlns:rdf="http://www.w3.org/1999/02/22-rdf-syntax-ns#"
   xmlns:svg="http://www.w3.org/2000/svg"
   xmlns="http://www.w3.org/2000/svg"
   xmlns:sodipodi="http://sodipodi.sourceforge.net/DTD/sodipodi-0.dtd"
   xmlns:inkscape="http://www.inkscape.org/namespaces/inkscape"
   width="412.58795mm"
   height="132.18526mm"
   viewBox="0 0 412.58795 132.18526"
   version="1.1"
   id="svg8"
   inkscape:version="1.0.2 (e86c870879, 2021-01-15)"
   sodipodi:docname="logo2-gris.svg"
   inkscape:export-filename="/home/fadelkon/collectius/hacklab/logo-logout/logo-500x160.png"
   inkscape:export-xdpi="30.781315"
   inkscape:export-ydpi="30.781315">
  <defs
     id="defs2" />
  <sodipodi:namedview
     id="base"
     pagecolor="#ffffff"
     bordercolor="#666666"
     borderopacity="1.0"
     inkscape:pageopacity="0.0"
     inkscape:pageshadow="2"
     inkscape:zoom="0.52106989"
     inkscape:cx="553.13159"
     inkscape:cy="228.10859"
     inkscape:document-units="mm"
     inkscape:current-layer="layer1"
     showgrid="false"
     inkscape:window-width="1920"
     inkscape:window-height="1028"
     inkscape:window-x="0"
     inkscape:window-y="24"
     inkscape:window-maximized="1"
     fit-margin-top="0"
     fit-margin-left="0"
     fit-margin-right="0"
     fit-margin-bottom="0"
     inkscape:document-rotation="0" />
  <metadata
     id="metadata5">
    <rdf:RDF>
      <cc:Work
         rdf:about="">
        <dc:format>image/svg+xml</dc:format>
        <dc:type
           rdf:resource="http://purl.org/dc/dcmitype/StillImage" />
        <dc:title></dc:title>
      </cc:Work>
    </rdf:RDF>
  </metadata>
  <g
     inkscape:label="Capa 1"
     inkscape:groupmode="layer"
     id="layer1"
     transform="translate(-36.915745,-70.533467)">
    <g
       id="g838"
       transform="matrix(-1,0,0,1,177.03073,0)"
       style="stroke:none;fill:#b1b1b1;fill-opacity:1">
      <path
         id="rect815"
         style="color:#000000;font-style:normal;font-variant:normal;font-weight:normal;font-stretch:normal;font-size:medium;line-height:normal;font-family:sans-serif;font-variant-ligatures:normal;font-variant-position:normal;font-variant-caps:normal;font-variant-numeric:normal;font-variant-alternates:normal;font-variant-east-asian:normal;font-feature-settings:normal;font-variation-settings:normal;text-indent:0;text-align:start;text-decoration:none;text-decoration-line:none;text-decoration-style:solid;text-decoration-color:#000000;letter-spacing:normal;word-spacing:normal;text-transform:none;writing-mode:lr-tb;direction:ltr;text-orientation:mixed;dominant-baseline:auto;baseline-shift:baseline;text-anchor:start;white-space:normal;shape-padding:0;shape-margin:0;inline-size:0;clip-rule:nonzero;display:inline;overflow:visible;visibility:visible;opacity:1;isolation:auto;mix-blend-mode:normal;color-interpolation:sRGB;color-interpolation-filters:linearRGB;solid-color:#000000;solid-opacity:1;vector-effect:none;fill:#b1b1b1;fill-opacity:1;fill-rule:nonzero;stroke:none;stroke-width:3.77953;stroke-linecap:round;stroke-linejoin:bevel;stroke-miterlimit:4;stroke-dasharray:none;stroke-dashoffset:0;stroke-opacity:1;color-rendering:auto;image-rendering:auto;shape-rendering:auto;text-rendering:auto;enable-background:accumulate;stop-color:#000000;stop-opacity:1"
         d="M 165.20508 -0.001953125 C 139.59238 -0.001953125 117.91016 18.246107 117.91016 41.884766 L 117.91016 90.648438 A -6.6666663 6.6666663 0 0 0 124.57617 97.314453 A -6.6666663 6.6666663 0 0 0 131.24219 90.648438 L 131.24219 41.884766 C 131.24219 26.503075 145.79428 13.330078 165.20508 13.330078 L 342.64453 13.330078 C 362.05533 13.330078 376.61523 26.503079 376.61523 41.884766 L 376.61523 415.82812 L 131.24219 415.82812 L 131.24219 377.79688 A -6.6666663 6.6666663 0 0 0 124.57617 371.13086 A -6.6666663 6.6666663 0 0 0 117.91016 377.79688 L 117.91016 457.71289 C 117.91016 481.35157 139.59238 499.59766 165.20508 499.59766 L 342.64453 499.59766 C 368.25723 499.59766 389.94727 481.35157 389.94727 457.71289 L 389.94727 41.884766 C 389.94727 18.246107 368.25723 -0.001953125 342.64453 -0.001953125 L 165.20508 -0.001953125 z M 131.24219 429.16797 L 376.61523 429.16797 L 376.61523 457.71289 C 376.61523 473.09459 362.05533 486.26562 342.64453 486.26562 L 165.20508 486.26562 C 145.79428 486.26562 131.24219 473.09459 131.24219 457.71289 L 131.24219 429.16797 z M 254.12109 437.08789 C 242.82876 437.08789 233.57031 446.35416 233.57031 457.64648 C 233.57031 468.93881 242.82876 478.19727 254.12109 478.19727 C 265.41343 478.19727 274.67969 468.93881 274.67969 457.64648 C 274.67969 446.35416 265.41343 437.08789 254.12109 437.08789 z M 254.12109 447.14258 C 259.97987 447.14258 264.625 451.78769 264.625 457.64648 C 264.625 463.50528 259.97987 468.14453 254.12109 468.14453 C 248.26231 468.14453 243.62305 463.50528 243.62305 457.64648 C 243.62305 451.78769 248.26231 447.14258 254.12109 447.14258 z "
         transform="matrix(-0.26458333,0,0,0.26458333,140.11499,70.533467)" />
      <g
         transform="translate(0,4.7625002)"
         id="g830"
         style="stroke:none;fill:#b1b1b1;fill-opacity:1">
        <path
           id="path824"
           style="color:#000000;font-style:normal;font-variant:normal;font-weight:normal;font-stretch:normal;font-size:medium;line-height:normal;font-family:sans-serif;font-variant-ligatures:normal;font-variant-position:normal;font-variant-caps:normal;font-variant-numeric:normal;font-variant-alternates:normal;font-variant-east-asian:normal;font-feature-settings:normal;font-variation-settings:normal;text-indent:0;text-align:start;text-decoration:none;text-decoration-line:none;text-decoration-style:solid;text-decoration-color:#000000;letter-spacing:normal;word-spacing:normal;text-transform:none;writing-mode:lr-tb;direction:ltr;text-orientation:mixed;dominant-baseline:auto;baseline-shift:baseline;text-anchor:start;white-space:normal;shape-padding:0;shape-margin:0;inline-size:0;clip-rule:nonzero;display:inline;overflow:visible;visibility:visible;opacity:0.95;isolation:auto;mix-blend-mode:normal;color-interpolation:sRGB;color-interpolation-filters:linearRGB;solid-color:#000000;solid-opacity:1;vector-effect:none;fill:#b1b1b1;fill-opacity:1;fill-rule:nonzero;stroke:none;stroke-width:3.77953;stroke-linecap:round;stroke-linejoin:round;stroke-miterlimit:4;stroke-dasharray:none;stroke-dashoffset:0;stroke-opacity:1;color-rendering:auto;image-rendering:auto;shape-rendering:auto;text-rendering:auto;enable-background:accumulate;stop-color:#000000;stop-opacity:1"
           d="M 66.583984 173.77148 A -6.6666663 6.6666663 0 0 0 61.615234 175.7207 L 2.125 235.21094 L 2.0214844 235.31445 A -6.667333 6.667333 0 0 0 2.1171875 235.54688 A -6.6666663 6.6666663 0 0 0 1.9101562 244.63867 L 64.619141 310.21875 A -6.6666663 6.6666663 0 0 0 74.046875 310.42578 A -6.6666663 6.6666663 0 0 0 74.253906 300.99805 L 22.328125 246.69727 L 247.83203 246.69727 A -6.6666663 6.6666663 0 0 0 254.49805 240.03125 A -6.6666663 6.6666663 0 0 0 247.83203 233.36523 L 22.832031 233.36523 L 71.042969 185.14648 A -6.6666663 6.6666663 0 0 0 71.042969 175.7207 A -6.6666663 6.6666663 0 0 0 66.583984 173.77148 z "
           transform="matrix(-0.26458333,0,0,0.26458333,140.11499,65.770967)" />
      </g>
    </g>
    <g
       aria-label="hacklab logout"
       id="text842"
       style="font-style:normal;font-variant:normal;font-weight:normal;font-stretch:normal;font-size:70.5556px;line-height:75%;font-family:FreeMono;-inkscape-font-specification:FreeMono;letter-spacing:0px;word-spacing:0px;fill:#b1b1b1;fill-opacity:1;stroke:#b1b1b1;stroke-width:1.05833;stroke-linecap:butt;stroke-linejoin:miter;stroke-miterlimit:4;stroke-dasharray:none;stroke-opacity:1">
      <path
         d="m 187.80211,108.95936 q 0,-3.175 -2.39889,-5.15056 -2.39889,-2.04611 -6.27945,-2.04611 -2.96333,0 -4.93889,1.19944 -1.905,1.12889 -4.79778,4.51556 l -0.77611,0.91722 v 17.99168 h 3.175 q 1.97556,0 1.97556,1.41112 0,1.48166 -1.97556,1.48166 h -9.31334 q -1.905,0 -1.905,-1.48166 0,-1.41112 1.905,-1.41112 h 3.24556 V 89.556569 h -3.81 q -1.905,0 -1.905,-1.481668 0,-1.411112 1.905,-1.411112 h 6.70278 v 18.132791 q 2.68111,-3.24556 5.15056,-4.58612 2.46944,-1.340552 5.715,-1.340552 4.93889,0 8.04334,2.822222 3.175,2.75167 3.175,7.05556 v 17.6389 h 3.175 q 1.97556,0 1.97556,1.41112 0,1.48166 -1.97556,1.48166 h -9.24278 q -1.905,0 -1.905,-1.48166 0,-1.41112 1.905,-1.41112 h 3.175 z"
         style="font-style:normal;font-variant:normal;font-weight:normal;font-stretch:normal;font-size:70.5556px;line-height:75%;font-family:FreeMono;-inkscape-font-specification:FreeMono;stroke:#b1b1b1;stroke-width:1.05833;stroke-miterlimit:4;stroke-dasharray:none;stroke-opacity:1;fill:#b1b1b1;fill-opacity:1"
         id="path132" />
      <path
         d="m 208.12202,102.60936 q 0,-1.55223 4.79778,-2.610562 4.79778,-1.12889 7.4789,-1.12889 4.93889,0 8.11389,2.469442 3.24556,2.46945 3.24556,6.2089 v 18.83834 h 3.81 q 1.905,0 1.905,1.41112 0,1.48166 -1.905,1.48166 h -6.70278 v -4.72722 q -6.27945,5.85611 -13.47612,5.85611 -4.93889,0 -7.97279,-2.46944 -3.03389,-2.54 -3.03389,-6.56167 0,-4.58612 4.09223,-7.40834 4.16278,-2.89278 10.79501,-2.89278 4.16278,0 9.59556,1.48167 v -5.00945 q 0,-2.61056 -2.39889,-4.16278 -2.39889,-1.62278 -6.27945,-1.62278 -3.24556,0 -6.70278,1.12889 -3.45723,1.12889 -4.02167,1.12889 -0.56445,0 -0.98778,-0.42334 -0.35278,-0.42333 -0.35278,-0.98777 z m 20.74335,18.76779 v -6.35001 q -4.23334,-1.05833 -9.03112,-1.05833 -5.57389,0 -9.10167,2.11667 -3.45723,2.04611 -3.45723,5.36222 0,2.75167 2.18723,4.445 2.18722,1.62278 5.85611,1.62278 3.73945,0 6.8439,-1.41111 3.175,-1.41111 6.70278,-4.72722 z"
         style="font-style:normal;font-variant:normal;font-weight:normal;font-stretch:normal;font-size:70.5556px;line-height:75%;font-family:FreeMono;-inkscape-font-specification:FreeMono;stroke:#b1b1b1;stroke-width:1.05833;stroke-miterlimit:4;stroke-dasharray:none;stroke-opacity:1;fill:#b1b1b1;fill-opacity:1"
         id="path134" />
      <path
         d="m 279.38307,123.07048 q 0,0.635 -1.19944,1.83445 -1.19945,1.12889 -3.175,2.39889 -1.905,1.27 -5.08001,2.18722 -3.175,0.91722 -6.49111,0.91722 -6.91445,0 -11.43001,-4.37444 -4.445,-4.37445 -4.445,-11.14779 0,-6.985 4.58611,-11.50056 4.58612,-4.515562 11.64168,-4.515562 6.56167,0 11.00667,3.880562 v -0.91723 q 0,-1.975553 1.48167,-1.975553 1.41111,0 1.41111,1.975553 v 6.42056 q 0,1.905 -1.41111,1.905 -1.27,0 -1.48167,-1.69333 -0.21167,-2.82222 -3.52778,-4.72723 -3.24556,-1.97555 -7.69056,-1.97555 -5.85612,0 -9.52501,3.66889 -3.59833,3.59834 -3.59833,9.38389 0,5.5739 3.66889,9.17223 3.66889,3.52778 9.45445,3.52778 7.69056,0 13.1939,-5.08 0.70555,-0.70556 1.27,-0.70556 0.56444,0 0.91722,0.42334 0.42333,0.35278 0.42333,0.91722 z"
         style="font-style:normal;font-variant:normal;font-weight:normal;font-stretch:normal;font-size:70.5556px;line-height:75%;font-family:FreeMono;-inkscape-font-specification:FreeMono;stroke:#b1b1b1;stroke-width:1.05833;stroke-miterlimit:4;stroke-dasharray:none;stroke-opacity:1;fill:#b1b1b1;fill-opacity:1"
         id="path136" />
      <path
         d="m 297.02187,116.57936 v 12.70001 h -6.70278 q -1.905,0 -1.905,-1.48166 0,-1.41112 1.905,-1.41112 h 3.81 V 89.556569 h -3.81 q -1.905,0 -1.905,-1.481668 0,-1.411112 1.905,-1.411112 h 6.70278 v 26.458351 l 12.20612,-10.37167 h -1.55222 q -1.905,0 -1.905,-1.48167 0,-1.411113 1.905,-1.411113 h 9.17223 q 1.905,0 1.905,1.411113 0,1.48167 -1.905,1.48167 h -3.31612 l -11.07723,9.24278 14.60501,14.39334 h 3.17501 q 1.905,0 1.905,1.41112 0,1.48166 -1.905,1.48166 h -9.24279 q -1.905,0 -1.905,-1.48166 0,-1.41112 1.905,-1.41112 h 1.97556 L 300.26743,113.8277 Z"
         style="font-style:normal;font-variant:normal;font-weight:normal;font-stretch:normal;font-size:70.5556px;line-height:75%;font-family:FreeMono;-inkscape-font-specification:FreeMono;stroke:#b1b1b1;stroke-width:1.05833;stroke-miterlimit:4;stroke-dasharray:none;stroke-opacity:1;fill:#b1b1b1;fill-opacity:1"
         id="path138" />
      <path
         d="m 348.88013,86.663789 v 39.722801 h 11.2889 q 1.97555,0 1.97555,1.41112 0,1.48166 -1.97555,1.48166 h -25.47058 q -1.905,0 -1.905,-1.48166 0,-1.41112 1.905,-1.41112 h 11.2889 V 89.556569 h -8.255 q -1.90501,0 -1.90501,-1.481668 0,-1.411112 1.90501,-1.411112 z"
         style="font-style:normal;font-variant:normal;font-weight:normal;font-stretch:normal;font-size:70.5556px;line-height:75%;font-family:FreeMono;-inkscape-font-specification:FreeMono;stroke:#b1b1b1;stroke-width:1.05833;stroke-miterlimit:4;stroke-dasharray:none;stroke-opacity:1;fill:#b1b1b1;fill-opacity:1"
         id="path140" />
      <path
         d="m 377.45504,102.60936 q 0,-1.55223 4.79778,-2.610562 4.79778,-1.12889 7.47889,-1.12889 4.9389,0 8.1139,2.469442 3.24556,2.46945 3.24556,6.2089 v 18.83834 h 3.81 q 1.905,0 1.905,1.41112 0,1.48166 -1.905,1.48166 h -6.70278 v -4.72722 q -6.27945,5.85611 -13.47612,5.85611 -4.9389,0 -7.97279,-2.46944 -3.03389,-2.54 -3.03389,-6.56167 0,-4.58612 4.09223,-7.40834 4.16278,-2.89278 10.79501,-2.89278 4.16278,0 9.59556,1.48167 v -5.00945 q 0,-2.61056 -2.39889,-4.16278 -2.39889,-1.62278 -6.27945,-1.62278 -3.24556,0 -6.70278,1.12889 -3.45723,1.12889 -4.02167,1.12889 -0.56445,0 -0.98778,-0.42334 -0.35278,-0.42333 -0.35278,-0.98777 z m 20.74335,18.76779 v -6.35001 q -4.23334,-1.05833 -9.03112,-1.05833 -5.57389,0 -9.10167,2.11667 -3.45723,2.04611 -3.45723,5.36222 0,2.75167 2.18723,4.445 2.18722,1.62278 5.85611,1.62278 3.73945,0 6.84389,-1.41111 3.17501,-1.41111 6.70279,-4.72722 z"
         style="font-style:normal;font-variant:normal;font-weight:normal;font-stretch:normal;font-size:70.5556px;line-height:75%;font-family:FreeMono;-inkscape-font-specification:FreeMono;stroke:#b1b1b1;stroke-width:1.05833;stroke-miterlimit:4;stroke-dasharray:none;stroke-opacity:1;fill:#b1b1b1;fill-opacity:1"
         id="path142" />
      <path
         d="m 421.12886,86.663789 v 19.473351 q 5.15056,-7.267232 12.70001,-7.267232 6.42056,0 10.86557,4.515562 4.445,4.51556 4.445,11.07723 0,6.63222 -4.51556,11.28889 -4.445,4.65667 -10.79501,4.65667 -7.76111,0 -12.70001,-7.33778 v 6.20889 h -6.70278 q -1.905,0 -1.905,-1.48166 0,-1.41112 1.905,-1.41112 h 3.81 V 89.556569 h -3.81 q -1.905,0 -1.905,-1.481668 0,-1.411112 1.905,-1.411112 z m 12.5589,15.098901 q -5.22111,0 -8.89,3.73944 -3.6689,3.73945 -3.6689,9.10168 0,5.36222 3.6689,9.17223 3.66889,3.73944 8.89,3.73944 5.15056,0 8.81945,-3.73944 3.73945,-3.73945 3.73945,-8.96057 0,-5.50333 -3.66889,-9.24278 -3.59834,-3.81 -8.89001,-3.81 z"
         style="font-style:normal;font-variant:normal;font-weight:normal;font-stretch:normal;font-size:70.5556px;line-height:75%;font-family:FreeMono;-inkscape-font-specification:FreeMono;stroke:#b1b1b1;stroke-width:1.05833;stroke-miterlimit:4;stroke-dasharray:none;stroke-opacity:1;fill:#b1b1b1;fill-opacity:1"
         id="path144" />
      <path
         d="M 179.54711,139.58049 V 179.3033 H 190.836 q 1.97556,0 1.97556,1.41111 0,1.48167 -1.97556,1.48167 h -25.47057 q -1.905,0 -1.905,-1.48167 0,-1.41111 1.905,-1.41111 h 11.2889 v -36.83003 h -8.25501 q -1.905,0 -1.905,-1.48167 0,-1.41111 1.905,-1.41111 z"
         style="font-style:normal;font-variant:normal;font-weight:normal;font-stretch:normal;font-size:70.5556px;line-height:75%;font-family:FreeMono;-inkscape-font-specification:FreeMono;stroke:#b1b1b1;stroke-width:1.05833;stroke-miterlimit:4;stroke-dasharray:none;stroke-opacity:1;fill:#b1b1b1;fill-opacity:1"
         id="path146" />
      <path
         d="m 220.46925,151.78661 q 6.77334,0 11.43001,4.65667 4.65667,4.58611 4.65667,11.2889 0,6.49111 -4.72723,11.07723 -4.72722,4.51556 -11.35945,4.51556 -6.70278,0 -11.43001,-4.58612 -4.65667,-4.58611 -4.65667,-11.21834 0,-6.49112 4.65667,-11.07723 4.72723,-4.65667 11.43001,-4.65667 z m 0,2.89278 q -5.50334,0 -9.38389,3.73945 -3.81001,3.73944 -3.81001,9.10167 0,5.36223 3.81001,9.17223 3.88055,3.73945 9.38389,3.73945 5.43278,0 9.31334,-3.73945 3.88056,-3.73945 3.88056,-8.96056 0,-5.5739 -3.81,-9.31334 -3.81001,-3.73945 -9.3839,-3.73945 z"
         style="font-style:normal;font-variant:normal;font-weight:normal;font-stretch:normal;font-size:70.5556px;line-height:75%;font-family:FreeMono;-inkscape-font-specification:FreeMono;stroke:#b1b1b1;stroke-width:1.05833;stroke-miterlimit:4;stroke-dasharray:none;stroke-opacity:1;fill:#b1b1b1;fill-opacity:1"
         id="path148" />
      <path
         d="m 272.68029,158.6305 v -5.85611 h 6.70278 q 1.90501,0 1.90501,1.41111 0,1.48167 -1.90501,1.48167 h -3.81 v 28.50446 q 0,4.51556 -3.38667,7.83167 -3.38667,3.31612 -8.255,3.31612 h -8.04334 q -1.905,0 -1.905,-1.48167 0,-1.41111 1.905,-1.41111 h 8.18445 q 3.59833,0 6.06778,-2.54 2.54,-2.54001 2.54,-6.13834 v -9.10167 q -4.65667,6.84389 -12.06501,6.84389 -5.99722,0 -10.30111,-4.37445 -4.23334,-4.37445 -4.23334,-10.51278 0,-6.13834 4.23334,-10.44223 4.30389,-4.37445 10.30111,-4.37445 7.4789,0 12.06501,6.84389 z m -11.85334,-3.95111 q -4.93889,0 -8.39612,3.45722 -3.45722,3.45723 -3.45722,8.46668 0,5.00944 3.45722,8.53723 3.45723,3.45722 8.39612,3.45722 4.93889,0 8.39612,-3.45722 3.45722,-3.45723 3.45722,-8.39612 0,-5.15056 -3.45722,-8.60779 -3.38667,-3.45722 -8.39612,-3.45722 z"
         style="font-style:normal;font-variant:normal;font-weight:normal;font-stretch:normal;font-size:70.5556px;line-height:75%;font-family:FreeMono;-inkscape-font-specification:FreeMono;stroke:#b1b1b1;stroke-width:1.05833;stroke-miterlimit:4;stroke-dasharray:none;stroke-opacity:1;fill:#b1b1b1;fill-opacity:1"
         id="path150" />
      <path
         d="m 305.13577,151.78661 q 6.77333,0 11.43,4.65667 4.65667,4.58611 4.65667,11.2889 0,6.49111 -4.72722,11.07723 -4.72723,4.51556 -11.35945,4.51556 -6.70279,0 -11.43001,-4.58612 -4.65667,-4.58611 -4.65667,-11.21834 0,-6.49112 4.65667,-11.07723 4.72722,-4.65667 11.43001,-4.65667 z m 0,2.89278 q -5.50334,0 -9.3839,3.73945 -3.81,3.73944 -3.81,9.10167 0,5.36223 3.81,9.17223 3.88056,3.73945 9.3839,3.73945 5.43278,0 9.31334,-3.73945 3.88055,-3.73945 3.88055,-8.96056 0,-5.5739 -3.81,-9.31334 -3.81,-3.73945 -9.38389,-3.73945 z"
         style="font-style:normal;font-variant:normal;font-weight:normal;font-stretch:normal;font-size:70.5556px;line-height:75%;font-family:FreeMono;-inkscape-font-specification:FreeMono;stroke:#b1b1b1;stroke-width:1.05833;stroke-miterlimit:4;stroke-dasharray:none;stroke-opacity:1;fill:#b1b1b1;fill-opacity:1"
         id="path152" />
      <path
         d="m 357.27625,182.19608 v -4.65667 q -5.92667,5.78556 -12.84112,5.78556 -4.23334,0 -6.8439,-2.54001 -2.54,-2.54 -2.54,-6.70278 v -18.41501 h -3.81 q -1.905,0 -1.905,-1.48167 0,-1.41111 1.905,-1.41111 h 6.70278 v 21.30779 q 0,2.68111 1.83445,4.51556 1.905,1.83445 4.58611,1.83445 7.05556,0 12.91168,-6.35001 v -18.41501 h -5.22112 q -1.97555,0 -1.97555,-1.48167 0,-1.41111 1.97555,-1.41111 h 8.1139 v 26.52891 h 2.39889 q 1.905,0 1.905,1.41111 0,1.48167 -1.905,1.48167 z"
         style="font-style:normal;font-variant:normal;font-weight:normal;font-stretch:normal;font-size:70.5556px;line-height:75%;font-family:FreeMono;-inkscape-font-specification:FreeMono;stroke:#b1b1b1;stroke-width:1.05833;stroke-miterlimit:4;stroke-dasharray:none;stroke-opacity:1;fill:#b1b1b1;fill-opacity:1"
         id="path154" />
      <path
         d="m 381.75893,152.77439 h 15.52223 q 1.90501,0 1.90501,1.41111 0,1.48167 -1.90501,1.48167 h -15.52223 v 18.83834 q 0,2.68112 2.11667,4.3039 2.11667,1.62278 5.78556,1.62278 2.96333,0 6.27945,-0.77612 3.38667,-0.84666 5.43278,-2.04611 0.70556,-0.42333 1.12889,-0.42333 0.49389,0 0.91722,0.42333 0.42334,0.42333 0.42334,0.98778 0,1.55222 -4.79779,3.175 -4.72722,1.55223 -9.24278,1.55223 -5.00945,0 -7.97278,-2.32834 -2.96334,-2.39889 -2.96334,-6.35 v -18.97946 h -5.22111 q -1.97556,0 -1.97556,-1.48167 0,-1.41111 1.97556,-1.41111 h 5.22111 v -8.39612 q 0,-1.905 1.48167,-1.905 1.41111,0 1.41111,1.905 z"
         style="font-style:normal;font-variant:normal;font-weight:normal;font-stretch:normal;font-size:70.5556px;line-height:75%;font-family:FreeMono;-inkscape-font-specification:FreeMono;stroke:#b1b1b1;stroke-width:1.05833;stroke-miterlimit:4;stroke-dasharray:none;stroke-opacity:1;fill:#b1b1b1;fill-opacity:1"
         id="path156" />
    </g>
  </g>
</svg>
