<?xml version="1.0"?>
<gpx version="1.1" creator="GDAL 3.2.2" xmlns:xsi="http://www.w3.org/2001/XMLSchema-instance" xmlns="http://www.topografix.com/GPX/1/1" xsi:schemaLocation="http://www.topografix.com/GPX/1/1 http://www.topografix.com/GPX/1/1/gpx.xsd">
<metadata><bounds minlat="41.375152845965253" minlon="2.127318849784106" maxlat="41.468412340591911" maxlon="2.222984927212160"/></metadata>                    
<trk>
  <trkseg>
    <trkpt lat="41.389662251530602" lon="2.189246099620284">
    </trkpt>
    <trkpt lat="41.386306343979108" lon="2.193473681088951">
    </trkpt>
    <trkpt lat="41.388004782254875" lon="2.195873856374388">
    </trkpt>
    <trkpt lat="41.387564829609957" lon="2.196651185870239">
    </trkpt>
    <trkpt lat="41.388966528832306" lon="2.199228646830168">
    </trkpt>
    <trkpt lat="41.390695590620588" lon="2.200687844304837">
    </trkpt>
    <trkpt lat="41.392056299219007" lon="2.204247195154263">
    </trkpt>
    <trkpt lat="41.394419567513523" lon="2.205542744314015">
    </trkpt>
    <trkpt lat="41.396486078030911" lon="2.208270216229285">
    </trkpt>
    <trkpt lat="41.3983888464467" lon="2.209143007242171">
    </trkpt>
    <trkpt lat="41.400312018131444" lon="2.210834039829638">
    </trkpt>
    <trkpt lat="41.401621379054987" lon="2.213179665676769">
    </trkpt>
    <trkpt lat="41.406265305853019" lon="2.219152829171204">
    </trkpt>
    <trkpt lat="41.406664218005815" lon="2.21875734574349">
    </trkpt>
    <trkpt lat="41.409200832852591" lon="2.221157521028929">
    </trkpt>
    <trkpt lat="41.410111126129721" lon="2.221525729737491">
    </trkpt>
    <trkpt lat="41.412985114453683" lon="2.22298492721216">
    </trkpt>
    <trkpt lat="41.413608988360956" lon="2.221252982545964">
    </trkpt>
    <trkpt lat="41.414641946738783" lon="2.220202905858585">
    </trkpt>
    <trkpt lat="41.408126874945708" lon="2.211597731965912">
    </trkpt>
    <trkpt lat="41.40735975128608" lon="2.212620533934138">
    </trkpt>
    <trkpt lat="41.399872148776431" lon="2.202910733915779">
    </trkpt>
    <trkpt lat="41.389662251530602" lon="2.189246099620284">
    </trkpt>
  </trkseg>
</trk>
<trk>
  <trkseg>
    <trkpt lat="41.377619059320807" lon="2.170549279641115">
    </trkpt>
    <trkpt lat="41.379727034784899" lon="2.168176379074831">
    </trkpt>
    <trkpt lat="41.381220995441851" lon="2.172785806611635">
    </trkpt>
    <trkpt lat="41.381753082729873" lon="2.172785806611635">
    </trkpt>
    <trkpt lat="41.38570267149548" lon="2.170085609415519">
    </trkpt>
    <trkpt lat="41.385968697348474" lon="2.164985236933966">
    </trkpt>
    <trkpt lat="41.385272935126082" lon="2.163894248167859">
    </trkpt>
    <trkpt lat="41.378724220026044" lon="2.163621500976332">
    </trkpt>
    <trkpt lat="41.378667939147654" lon="2.163219198868829">
    </trkpt>
    <trkpt lat="41.385283166977423" lon="2.154457195341032">
    </trkpt>
    <trkpt lat="41.380361460626247" lon="2.143015450656474">
    </trkpt>
    <trkpt lat="41.37528588060696" lon="2.149725031568035">
    </trkpt>
    <trkpt lat="41.375152845965253" lon="2.167630884691776">
    </trkpt>
    <trkpt lat="41.377619059320807" lon="2.170549279641115">
    </trkpt>
  </trkseg>
</trk>
<trk>
  <trkseg>
    <trkpt lat="41.404383225738208" lon="2.171981202396636">
    </trkpt>
    <trkpt lat="41.410489558907187" lon="2.163730599852948">
    </trkpt>
    <trkpt lat="41.413486259541124" lon="2.161071314735561">
    </trkpt>
    <trkpt lat="41.413915809396016" lon="2.161289512488783">
    </trkpt>
    <trkpt lat="41.414120355947603" lon="2.161044040016409">
    </trkpt>
    <trkpt lat="41.413966946094291" lon="2.160212161082251">
    </trkpt>
    <trkpt lat="41.415030580291585" lon="2.158057458269189">
    </trkpt>
    <trkpt lat="41.416401006368403" lon="2.157593788043596">
    </trkpt>
    <trkpt lat="41.416319190697784" lon="2.157130117818">
    </trkpt>
    <trkpt lat="41.415613526260998" lon="2.156789183828591">
    </trkpt>
    <trkpt lat="41.414999898779847" lon="2.155698195062484">
    </trkpt>
    <trkpt lat="41.415071488951355" lon="2.155548184107144">
    </trkpt>
    <trkpt lat="41.414836263805832" lon="2.155098151241125">
    </trkpt>
    <trkpt lat="41.416697587310495" lon="2.152697975955688">
    </trkpt>
    <trkpt lat="41.416830536948368" lon="2.151811547583225">
    </trkpt>
    <trkpt lat="41.417679362836374" lon="2.150843295053305">
    </trkpt>
    <trkpt lat="41.418292965003907" lon="2.150897844491609">
    </trkpt>
    <trkpt lat="41.419264489913374" lon="2.151593349830003">
    </trkpt>
    <trkpt lat="41.420072378507349" lon="2.151606987189579">
    </trkpt>
    <trkpt lat="41.42028713201239" lon="2.149247723982871">
    </trkpt>
    <trkpt lat="41.420716636892045" lon="2.149384097578635">
    </trkpt>
    <trkpt lat="41.421544959709635" lon="2.149315910780753">
    </trkpt>
    <trkpt lat="41.421442698205048" lon="2.147706702350745">
    </trkpt>
    <trkpt lat="41.421054103019031" lon="2.146724812461248">
    </trkpt>
    <trkpt lat="41.420777994500121" lon="2.145020142514205">
    </trkpt>
    <trkpt lat="41.420092831252703" lon="2.143997340545979">
    </trkpt>
    <trkpt lat="41.4214836028262" lon="2.141951736609526">
    </trkpt>
    <trkpt lat="41.421105234097404" lon="2.140492539134856">
    </trkpt>
    <trkpt lat="41.420164415810746" lon="2.140001594190108">
    </trkpt>
    <trkpt lat="41.421043876798514" lon="2.137492320028061">
    </trkpt>
    <trkpt lat="41.421831291065772" lon="2.138351473681372">
    </trkpt>
    <trkpt lat="41.423314058248359" lon="2.137628693623826">
    </trkpt>
    <trkpt lat="41.423774220489861" lon="2.136033122553394">
    </trkpt>
    <trkpt lat="41.424500247617296" lon="2.135910386317207">
    </trkpt>
    <trkpt lat="41.424725212122098" lon="2.135146694180932">
    </trkpt>
    <trkpt lat="41.424326410875231" lon="2.135460353451187">
    </trkpt>
    <trkpt lat="41.422720955438159" lon="2.134246628448893">
    </trkpt>
    <trkpt lat="41.422158525355457" lon="2.134860309629828">
    </trkpt>
    <trkpt lat="41.422536887947338" lon="2.132937441929564">
    </trkpt>
    <trkpt lat="41.422434628004773" lon="2.13198282675922">
    </trkpt>
    <trkpt lat="41.422761859254166" lon="2.130919112712265">
    </trkpt>
    <trkpt lat="41.422495983989634" lon="2.130182695295142">
    </trkpt>
    <trkpt lat="41.419959888292709" lon="2.132228299231594">
    </trkpt>
    <trkpt lat="41.419315622400759" lon="2.130987299510143">
    </trkpt>
    <trkpt lat="41.420031472997294" lon="2.130087233778104">
    </trkpt>
    <trkpt lat="41.419448566679598" lon="2.129773574507848">
    </trkpt>
    <trkpt lat="41.419683775121626" lon="2.128668948382164">
    </trkpt>
    <trkpt lat="41.419284942913166" lon="2.127318849784106">
    </trkpt>
    <trkpt lat="41.41871225648427" lon="2.128218915516145">
    </trkpt>
    <trkpt lat="41.418303191657571" lon="2.127782520009702">
    </trkpt>
    <trkpt lat="41.417505507834974" lon="2.129064431809879">
    </trkpt>
    <trkpt lat="41.417607775539217" lon="2.132828343052949">
    </trkpt>
    <trkpt lat="41.41644191416507" lon="2.13443755148296">
    </trkpt>
    <trkpt lat="41.416539070078883" lon="2.134648930556394">
    </trkpt>
    <trkpt lat="41.415429438625324" lon="2.134942133787285">
    </trkpt>
    <trkpt lat="41.415879429702542" lon="2.136033122553393">
    </trkpt>
    <trkpt lat="41.415071488951348" lon="2.136264957666191">
    </trkpt>
    <trkpt lat="41.414304447293318" lon="2.137219572836532">
    </trkpt>
    <trkpt lat="41.414115242291658" lon="2.137744611180222">
    </trkpt>
    <trkpt lat="41.411727120976408" lon="2.14084711048385">
    </trkpt>
    <trkpt lat="41.411532794608512" lon="2.143288197848015">
    </trkpt>
    <trkpt lat="41.411348695407973" lon="2.144842856839718">
    </trkpt>
    <trkpt lat="41.410960039826875" lon="2.145579274256841">
    </trkpt>
    <trkpt lat="41.410059986396107" lon="2.145988395044131">
    </trkpt>
    <trkpt lat="41.408034820584774" lon="2.147652152912445">
    </trkpt>
    <trkpt lat="41.407185868664023" lon="2.148620405442365">
    </trkpt>
    <trkpt lat="41.406544033191913" lon="2.149414781637686">
    </trkpt>
    <trkpt lat="41.40718331156318" lon="2.150055737537785">
    </trkpt>
    <trkpt lat="41.407439021150509" lon="2.149946638661174">
    </trkpt>
    <trkpt lat="41.407965779728492" lon="2.150758061555966">
    </trkpt>
    <trkpt lat="41.408574359564348" lon="2.152264989789152">
    </trkpt>
    <trkpt lat="41.409080652730864" lon="2.153758280662762">
    </trkpt>
    <trkpt lat="41.408589701839482" lon="2.154181038809628">
    </trkpt>
    <trkpt lat="41.409827300099948" lon="2.156663038252513">
    </trkpt>
    <trkpt lat="41.40639060544688" lon="2.160072378146601">
    </trkpt>
    <trkpt lat="41.403618615119711" lon="2.155558412126831">
    </trkpt>
    <trkpt lat="41.40232975277624" lon="2.156956241483409">
    </trkpt>
    <trkpt lat="41.40145259572958" lon="2.158016546190466">
    </trkpt>
    <trkpt lat="41.401132929139237" lon="2.158524537834685">
    </trkpt>
    <trkpt lat="41.400179034686914" lon="2.159598479901318">
    </trkpt>
    <trkpt lat="41.398971941745607" lon="2.160784930184465">
    </trkpt>
    <trkpt lat="41.400593328367414" lon="2.163048731874138">
    </trkpt>
    <trkpt lat="41.400859293288825" lon="2.162653248446424">
    </trkpt>
    <trkpt lat="41.401948715163826" lon="2.163955616285965">
    </trkpt>
    <trkpt lat="41.400997390030241" lon="2.165237528086139">
    </trkpt>
    <trkpt lat="41.401739015658897" lon="2.166198961936271">
    </trkpt>
    <trkpt lat="41.400859293288825" lon="2.167344500140684">
    </trkpt>
    <trkpt lat="41.404383225738208" lon="2.171981202396636">
    </trkpt>
  </trkseg>
</trk>
<trk>
  <trkseg>
    <trkpt lat="41.439742386245015" lon="2.18532876808199">
    </trkpt>
    <trkpt lat="41.446964729050265" lon="2.18753802033336">
    </trkpt>
    <trkpt lat="41.450199955233515" lon="2.188704014577138">
    </trkpt>
    <trkpt lat="41.453680326481752" lon="2.18880629477396">
    </trkpt>
    <trkpt lat="41.455780724502631" lon="2.188417630026035">
    </trkpt>
    <trkpt lat="41.456807901689771" lon="2.187783492805734">
    </trkpt>
    <trkpt lat="41.457344480319115" lon="2.188724470616493">
    </trkpt>
    <trkpt lat="41.458977185129363" lon="2.187711896667949">
    </trkpt>
    <trkpt lat="41.460042636997308" lon="2.187415284097163">
    </trkpt>
    <trkpt lat="41.462173488221318" lon="2.187353915979066">
    </trkpt>
    <trkpt lat="41.462173488221318" lon="2.18759938845144">
    </trkpt>
    <trkpt lat="41.467707242403506" lon="2.187128899546056">
    </trkpt>
    <trkpt lat="41.467814540448586" lon="2.185471960357531">
    </trkpt>
    <trkpt lat="41.468335699855935" lon="2.184490070468033">
    </trkpt>
    <trkpt lat="41.468412340591911" lon="2.18356954869663">
    </trkpt>
    <trkpt lat="41.467937166568383" lon="2.181871697429381">
    </trkpt>
    <trkpt lat="41.467676585786585" lon="2.180623879028145">
    </trkpt>
    <trkpt lat="41.467615272509249" lon="2.179457884784368">
    </trkpt>
    <trkpt lat="41.468236066763716" lon="2.178772607465656">
    </trkpt>
    <trkpt lat="41.467124764203191" lon="2.178619187170422">
    </trkpt>
    <trkpt lat="41.466059428693924" lon="2.179263552410405">
    </trkpt>
    <trkpt lat="41.464963417780474" lon="2.180685247146239">
    </trkpt>
    <trkpt lat="41.464189301006854" lon="2.177524789064421">
    </trkpt>
    <trkpt lat="41.464158642726545" lon="2.176931563922845">
    </trkpt>
    <trkpt lat="41.463767748382118" lon="2.175714429580657">
    </trkpt>
    <trkpt lat="41.464005351107616" lon="2.174742767710842">
    </trkpt>
    <trkpt lat="41.46333086367919" lon="2.174251822766094">
    </trkpt>
    <trkpt lat="41.462625710229872" lon="2.174292734844823">
    </trkpt>
    <trkpt lat="41.462510738831746" lon="2.173709737722934">
    </trkpt>
    <trkpt lat="41.460924112721372" lon="2.171387977255065">
    </trkpt>
    <trkpt lat="41.461292029479466" lon="2.171224328940149">
    </trkpt>
    <trkpt lat="41.460839798170319" lon="2.169864002322409">
    </trkpt>
    <trkpt lat="41.460663503754809" lon="2.16991514242082">
    </trkpt>
    <trkpt lat="41.46028791840191" lon="2.168207063133883">
    </trkpt>
    <trkpt lat="41.460701828668519" lon="2.168247975212612">
    </trkpt>
    <trkpt lat="41.460724823605865" lon="2.167235401264068">
    </trkpt>
    <trkpt lat="41.4603952287247" lon="2.167081980968835">
    </trkpt>
    <trkpt lat="41.459904665799584" lon="2.167613837992312">
    </trkpt>
    <trkpt lat="41.459881670571413" lon="2.167112665027881">
    </trkpt>
    <trkpt lat="41.459107493131832" lon="2.166856964535825">
    </trkpt>
    <trkpt lat="41.458486611477774" lon="2.166171687217113">
    </trkpt>
    <trkpt lat="41.458417624260413" lon="2.165690970292047">
    </trkpt>
    <trkpt lat="41.457950042297441" lon="2.165537549996813">
    </trkpt>
    <trkpt lat="41.455857380078285" lon="2.164115855260976">
    </trkpt>
    <trkpt lat="41.455067823310124" lon="2.164392011792397">
    </trkpt>
    <trkpt lat="41.454837853512053" lon="2.164923868815874">
    </trkpt>
    <trkpt lat="41.454063615865358" lon="2.164954552874921">
    </trkpt>
    <trkpt lat="41.453749318737948" lon="2.164576116146677">
    </trkpt>
    <trkpt lat="41.452614770095515" lon="2.164739764461593">
    </trkpt>
    <trkpt lat="41.452223806168909" lon="2.165384129701576">
    </trkpt>
    <trkpt lat="41.451633522834925" lon="2.165701198311726">
    </trkpt>
    <trkpt lat="41.451089230845184" lon="2.164790904560005">
    </trkpt>
    <trkpt lat="41.451503199816578" lon="2.165834162567593">
    </trkpt>
    <trkpt lat="41.448758689561693" lon="2.170129930834142">
    </trkpt>
    <trkpt lat="41.446972395653738" lon="2.171633449727446">
    </trkpt>
    <trkpt lat="41.446267064344227" lon="2.171122048743333">
    </trkpt>
    <trkpt lat="41.444572704540597" lon="2.171009540526828">
    </trkpt>
    <trkpt lat="41.443338324066325" lon="2.171776642002985">
    </trkpt>
    <trkpt lat="41.441973577949547" lon="2.172717619813753">
    </trkpt>
    <trkpt lat="41.441153183044406" lon="2.172871040108987">
    </trkpt>
    <trkpt lat="41.440417118975503" lon="2.173546089408016">
    </trkpt>
    <trkpt lat="41.43902930880332" lon="2.175070064340685">
    </trkpt>
    <trkpt lat="41.438569254682974" lon="2.174671171573071">
    </trkpt>
    <trkpt lat="41.438392899738858" lon="2.174906416025762">
    </trkpt>
    <trkpt lat="41.439742386245015" lon="2.18532876808199">
    </trkpt>
  </trkseg>
</trk>
</gpx>
